Built-in data — olympic_game • olympics
…
# slug for the recent 5 summer games
olympic_game %>% dplyr::filter(season == "Summer") %>% dplyr::pull(slug) %>% head(5)
#> [1] "tokyo-2020"   "rio-2016"     "london-2012"  "beijing-2008" "athens-2004" 

# Female single swimmer leaderboard
tokyo2020 %>%
 dplyr::filter(sport == "swimming",
              stringr::str_detect(event, "women"),
              !is.na(name),
              rank %in% c("G", "S", "B")) %>%
  dplyr::count(name, rank) %>%
  tidyr::pivot_wider(names_from = "rank", values_from = "n", values_fill = 0) %>%
  dplyr::select(name, G, S, B) %>%
  dplyr::arrange(desc(G), desc(S), desc(B))
#> # A tibble: 27 × 4
#>    name                    G     S     B
#>    <chr>               <int> <int> <int>
#>  1 Ariarne Titmus          2     1     0
#>  2 Katie Ledecky           2     1     0
#>  3 Emma Mckeon             2     0     1
#>  4 Kaylee Mckeown          2     0     0
#>  5 Yui Ohashi              2     0     0
#>  6 Tatjana Schoenmaker     1     1     0
#>  7 Yufei Zhang             1     1     0
#>  8 Lydia Jacoby            1     0     0
#>  9 Margaret Mac Neil       1     0     0
#> 10 Kylie Masse             0     2     0
#> # … with 17 more rows
…
