Title — olympic_game • olympics
…
olympic_game

    Format

    An object of class tbl_df (inherits from tbl, data.frame) with 53 rows and 7 columns.

    Details

    TODO

    Examples

olympic_game
#> # A tibble: 53 × 7
#>    name        year season locat…¹ slug  startDate           endDate            
#>    <chr>      <int> <chr>  <chr>   <chr> <dttm>              <dttm>             
#>  1 Beijing 2…  2022 Winter China   beij… 2022-02-04 00:00:00 2022-02-20 00:00:00
#>  2 Tokyo 2020  2020 Summer Japan   toky… 2021-07-23 00:00:00 2021-08-08 00:00:00
#>  3 PyeongCha…  2018 Winter Republ… pyeo… 2018-02-08 00:00:00 2018-02-25 00:00:00
#>  4 Rio 2016    2016 Summer Brazil  rio-… 2016-08-05 00:00:00 2016-08-21 00:00:00
#>  5 Sochi 2014  2014 Winter Russia… soch… 2014-02-07 00:00:00 2014-02-23 00:00:00
#>  6 London 20…  2012 Summer Great … lond… 2012-07-27 00:00:00 2012-08-12 00:00:00
#>  7 Vancouver…  2010 Winter Canada  vanc… 2010-02-12 00:00:00 2010-02-28 00:00:00
#>  8 Beijing 2…  2008 Summer China   beij… 2008-08-08 00:00:00 2008-08-24 00:00:00
#>  9 Turin 2006  2006 Winter Italy   turi… 2006-02-10 00:00:00 2006-02-26 00:00:00
#> 10 Athens 20…  2004 Summer Greece  athe… 2004-08-13 00:00:00 2004-08-29 00:00:00
#> # … with 43 more rows, and abbreviated variable name ¹​location
…
