Functions to scrape olympic data — get_sports • olympics
…
table
used in get_events() and get_results(); 
 the tibble produced by get_sports() and get_events(), see examples.

    Value

a tibble of event summary

    Examples

# sport table in Tokyo 2020
get_sports(game = "tokyo-2020")
#> # A tibble: 46 × 2
#>    game       sport                
#>    <chr>      <chr>                
#>  1 tokyo-2020 wrestling            
#>  2 tokyo-2020 weightlifting        
#>  3 tokyo-2020 water-polo           
#>  4 tokyo-2020 volleyball           
#>  5 tokyo-2020 triathlon            
#>  6 tokyo-2020 trampoline-gymnastics
#>  7 tokyo-2020 tennis               
#>  8 tokyo-2020 taekwondo            
#>  9 tokyo-2020 table-tennis         
#> 10 tokyo-2020 swimming             
#> # … with 36 more rows

# event table from URL or sport table
get_single_event("https://olympics.com/en/olympic-games/tokyo-2020/results/swimming")
#> # A tibble: 35 × 4
#>    `__typename` slug                          title                       gender
#>    <chr>        <chr>                         <chr>                       <chr> 
#>  1 GameEvent    women-s-50m-freestyle         Women's 50m Freestyle       Women 
#>  2 GameEvent    men-s-200m-freestyle          Men's 200m Freestyle        Men   
#>  3 GameEvent    women-s-200m-butterfly        Women's 200m Butterfly      Women 
#>  4 GameEvent    men-s-200m-butterfly          Men's 200m Butterfly        Men   
#>  5 GameEvent    women-s-100m-breaststroke     Women's 100m Breaststroke   Women 
#>  6 GameEvent    men-s-100m-freestyle          Men's 100m Freestyle        Men   
#>  7 GameEvent    women-s-4-x-100m-medley-relay Women's 4 x 100m Medley Re… Women 
#>  8 GameEvent    mixed-4-x-100m-medley-relay   Mixed 4 x 100m Medley Relay Mixed 
#>  9 GameEvent    women-s-100m-butterfly        Women's 100m Butterfly      Women 
#> 10 GameEvent    women-s-200m-breaststroke     Women's 200m Breaststroke   Women 
#> # … with 25 more rows
…
